EESchema Schematic File Version 4
EELAYER 30 0
EELAYER END
$Descr A4 11693 8268
encoding utf-8
Sheet 1 1
Title "charging circuit lipo"
Date "2020-02-05"
Rev "v1.0"
Comp "R3TR0 Design"
Comment1 "by James Weeks"
Comment2 ""
Comment3 ""
Comment4 ""
$EndDescr
$Comp
L Regulator_Switching:TPS61200DRC U2
U 1 1 5E3B3E96
P 7500 3650
F 0 "U2" H 7500 4117 50  0000 C CNN
F 1 "TPS61200DRC" H 7500 4026 50  0000 C CNN
F 2 "Package_SON:Texas_S-PVSON-N10_ThermalVias" H 7500 3200 50  0001 C CNN
F 3 "http://www.ti.com/lit/ds/symlink/tps61200.pdf" H 7500 3650 50  0001 C CNN
	1    7500 3650
	1    0    0    -1  
$EndComp
$Comp
L power:GND #PWR0101
U 1 1 5E3B49D1
P 7500 4350
F 0 "#PWR0101" H 7500 4100 50  0001 C CNN
F 1 "GND" H 7505 4177 50  0000 C CNN
F 2 "" H 7500 4350 50  0001 C CNN
F 3 "" H 7500 4350 50  0001 C CNN
	1    7500 4350
	1    0    0    -1  
$EndComp
Wire Wire Line
	7400 4150 7400 4350
Wire Wire Line
	7400 4350 7500 4350
Wire Wire Line
	7500 4150 7500 4350
Connection ~ 7500 4350
Wire Wire Line
	7600 4150 7600 4350
Wire Wire Line
	7600 4350 7500 4350
Wire Wire Line
	7100 3550 6800 3550
Wire Wire Line
	6800 3550 6800 3450
Wire Wire Line
	7100 3450 6800 3450
Connection ~ 6800 3450
Wire Wire Line
	7100 3650 6800 3650
Wire Wire Line
	6800 3650 6800 3550
Connection ~ 6800 3550
$Comp
L Device:R R3
U 1 1 5E3B5B1F
P 6350 3600
F 0 "R3" H 6420 3646 50  0000 L CNN
F 1 "2M" H 6420 3555 50  0000 L CNN
F 2 "" V 6280 3600 50  0001 C CNN
F 3 "~" H 6350 3600 50  0001 C CNN
	1    6350 3600
	1    0    0    -1  
$EndComp
$Comp
L Device:R R4
U 1 1 5E3B5F65
P 6350 4050
F 0 "R4" H 6420 4096 50  0000 L CNN
F 1 "180k" H 6420 4005 50  0000 L CNN
F 2 "" V 6280 4050 50  0001 C CNN
F 3 "~" H 6350 4050 50  0001 C CNN
	1    6350 4050
	1    0    0    -1  
$EndComp
Wire Wire Line
	7100 3750 6350 3750
Wire Wire Line
	6350 3900 6350 3750
Connection ~ 6350 3750
Wire Wire Line
	7900 3550 8050 3550
Wire Wire Line
	8050 3550 8050 3850
Wire Wire Line
	8050 3850 7900 3850
$Comp
L Device:C C4
U 1 1 5E3B880D
P 8300 3900
F 0 "C4" H 8415 3946 50  0000 L CNN
F 1 "1uF" H 8415 3855 50  0000 L CNN
F 2 "" H 8338 3750 50  0001 C CNN
F 3 "~" H 8300 3900 50  0001 C CNN
	1    8300 3900
	1    0    0    -1  
$EndComp
Wire Wire Line
	8300 3650 7900 3650
$Comp
L power:GND #PWR0102
U 1 1 5E3B96AA
P 8300 4300
F 0 "#PWR0102" H 8300 4050 50  0001 C CNN
F 1 "GND" H 8305 4127 50  0000 C CNN
F 2 "" H 8300 4300 50  0001 C CNN
F 3 "" H 8300 4300 50  0001 C CNN
	1    8300 4300
	1    0    0    -1  
$EndComp
$Comp
L Device:L L1
U 1 1 5E3B9B16
P 7500 3000
F 0 "L1" V 7319 3000 50  0000 C CNN
F 1 "2.2uH" V 7410 3000 50  0000 C CNN
F 2 "" H 7500 3000 50  0001 C CNN
F 3 "~" H 7500 3000 50  0001 C CNN
	1    7500 3000
	0    1    1    0   
$EndComp
Wire Wire Line
	7350 3000 7050 3000
Wire Wire Line
	6800 3000 6800 3450
Wire Wire Line
	7900 3450 8050 3450
Wire Wire Line
	8050 3450 8050 3000
Wire Wire Line
	8050 3000 7650 3000
Wire Wire Line
	6800 3000 6350 3000
Connection ~ 6800 3000
Wire Wire Line
	6350 3450 6350 3000
Connection ~ 6350 3000
Wire Wire Line
	6350 3000 5900 3000
Wire Wire Line
	6350 4200 6350 4300
$Comp
L power:GND #PWR0103
U 1 1 5E3BCB1B
P 6350 4350
F 0 "#PWR0103" H 6350 4100 50  0001 C CNN
F 1 "GND" H 6355 4177 50  0000 C CNN
F 2 "" H 6350 4350 50  0001 C CNN
F 3 "" H 6350 4350 50  0001 C CNN
	1    6350 4350
	1    0    0    -1  
$EndComp
$Comp
L Device:C C3
U 1 1 5E3BD1C9
P 5900 3800
F 0 "C3" H 6015 3846 50  0000 L CNN
F 1 "4.7uF" H 6015 3755 50  0000 L CNN
F 2 "" H 5938 3650 50  0001 C CNN
F 3 "~" H 5900 3800 50  0001 C CNN
	1    5900 3800
	1    0    0    -1  
$EndComp
Wire Wire Line
	6350 4300 5900 4300
Wire Wire Line
	5900 4300 5900 3950
Connection ~ 6350 4300
Wire Wire Line
	6350 4300 6350 4350
Wire Wire Line
	5900 3650 5900 3000
Connection ~ 5900 3000
Wire Wire Line
	8300 4050 8300 4200
Wire Wire Line
	8300 3750 8300 3650
Wire Wire Line
	8050 3550 8950 3550
Connection ~ 8050 3550
$Comp
L Device:C C5
U 1 1 5E3C0102
P 8950 3900
F 0 "C5" H 9065 3946 50  0000 L CNN
F 1 "22uF" H 9065 3855 50  0000 L CNN
F 2 "" H 8988 3750 50  0001 C CNN
F 3 "~" H 8950 3900 50  0001 C CNN
	1    8950 3900
	1    0    0    -1  
$EndComp
Wire Wire Line
	8950 3750 8950 3550
Connection ~ 8950 3550
Wire Wire Line
	8950 4050 8950 4200
Wire Wire Line
	8950 4200 8300 4200
Connection ~ 8300 4200
Wire Wire Line
	8300 4200 8300 4300
Text GLabel 9500 3550 2    50   Input ~ 0
5V_OUT
$Comp
L Connector:USB_B_Mini J1
U 1 1 5E3C1B9B
P 2550 3400
F 0 "J1" H 2607 3867 50  0000 C CNN
F 1 "USB_B_Mini" H 2607 3776 50  0000 C CNN
F 2 "" H 2700 3350 50  0001 C CNN
F 3 "~" H 2700 3350 50  0001 C CNN
	1    2550 3400
	1    0    0    -1  
$EndComp
Wire Wire Line
	2850 3200 2850 3000
Wire Wire Line
	2450 3800 2450 4000
Wire Wire Line
	2450 4000 2500 4000
Wire Wire Line
	2550 4000 2550 3800
Connection ~ 2550 4000
$Comp
L power:GND #PWR0104
U 1 1 5E3C4E33
P 2500 4000
F 0 "#PWR0104" H 2500 3750 50  0001 C CNN
F 1 "GND" H 2505 3827 50  0000 C CNN
F 2 "" H 2500 4000 50  0001 C CNN
F 3 "" H 2500 4000 50  0001 C CNN
	1    2500 4000
	1    0    0    -1  
$EndComp
Connection ~ 2500 4000
Wire Wire Line
	2500 4000 2550 4000
Wire Wire Line
	2850 3400 2900 3400
Wire Wire Line
	2900 3400 2900 3500
Wire Wire Line
	2900 3500 2850 3500
Wire Wire Line
	2850 3600 2900 3600
Wire Wire Line
	2900 3600 2900 4000
Wire Wire Line
	2550 4000 2900 4000
$Comp
L Battery_Management:MCP73831-2-OT U1
U 1 1 5E3C7B02
P 3800 3550
F 0 "U1" H 4100 3250 50  0000 C CNN
F 1 "MCP73831-2-OT" H 4250 3800 50  0000 C CNN
F 2 "Package_TO_SOT_SMD:SOT-23-5" H 3850 3300 50  0001 L CIN
F 3 "http://ww1.microchip.com/downloads/en/DeviceDoc/20001984g.pdf" H 3650 3500 50  0001 C CNN
	1    3800 3550
	1    0    0    -1  
$EndComp
$Comp
L power:GND #PWR0105
U 1 1 5E3C8A10
P 3800 4050
F 0 "#PWR0105" H 3800 3800 50  0001 C CNN
F 1 "GND" H 3805 3877 50  0000 C CNN
F 2 "" H 3800 4050 50  0001 C CNN
F 3 "" H 3800 4050 50  0001 C CNN
	1    3800 4050
	1    0    0    -1  
$EndComp
Wire Wire Line
	3800 4050 3800 3850
$Comp
L Device:R R1
U 1 1 5E3C9AAD
P 3200 3900
F 0 "R1" H 3270 3946 50  0000 L CNN
F 1 "10k" H 3270 3855 50  0000 L CNN
F 2 "" V 3130 3900 50  0001 C CNN
F 3 "~" H 3200 3900 50  0001 C CNN
	1    3200 3900
	1    0    0    -1  
$EndComp
$Comp
L power:GND #PWR0106
U 1 1 5E3CA213
P 3200 4150
F 0 "#PWR0106" H 3200 3900 50  0001 C CNN
F 1 "GND" H 3205 3977 50  0000 C CNN
F 2 "" H 3200 4150 50  0001 C CNN
F 3 "" H 3200 4150 50  0001 C CNN
	1    3200 4150
	1    0    0    -1  
$EndComp
Wire Wire Line
	3200 4150 3200 4050
Wire Wire Line
	3200 3750 3200 3650
Wire Wire Line
	3200 3650 3400 3650
Wire Wire Line
	3800 3250 3800 3000
Wire Wire Line
	3800 3000 3100 3000
$Comp
L Device:C C1
U 1 1 5E3CD25B
P 3100 3350
F 0 "C1" H 3215 3396 50  0000 L CNN
F 1 "4.7uF" H 3215 3305 50  0000 L CNN
F 2 "" H 3138 3200 50  0001 C CNN
F 3 "~" H 3100 3350 50  0001 C CNN
	1    3100 3350
	1    0    0    -1  
$EndComp
Wire Wire Line
	3100 3200 3100 3000
Connection ~ 3100 3000
Wire Wire Line
	3100 3000 2850 3000
Wire Wire Line
	3200 4050 3100 4050
Wire Wire Line
	3100 4050 3100 3500
Connection ~ 3200 4050
NoConn ~ 4200 3650
$Comp
L Device:C C2
U 1 1 5E3D59A7
P 4450 3600
F 0 "C2" H 4565 3646 50  0000 L CNN
F 1 "4.7uF" H 4565 3555 50  0000 L CNN
F 2 "" H 4488 3450 50  0001 C CNN
F 3 "~" H 4450 3600 50  0001 C CNN
	1    4450 3600
	1    0    0    -1  
$EndComp
$Comp
L Device:Battery_Cell BT1
U 1 1 5E3D6024
P 4850 3650
F 0 "BT1" H 4968 3746 50  0000 L CNN
F 1 "Battery_Cell" H 4968 3655 50  0000 L CNN
F 2 "" V 4850 3710 50  0001 C CNN
F 3 "~" V 4850 3710 50  0001 C CNN
	1    4850 3650
	1    0    0    -1  
$EndComp
Wire Wire Line
	4850 3450 4450 3450
Wire Wire Line
	4200 3450 4450 3450
Connection ~ 4450 3450
Wire Wire Line
	3800 4050 4450 4050
Wire Wire Line
	4450 4050 4450 3750
Connection ~ 3800 4050
Wire Wire Line
	4450 4050 4850 4050
Wire Wire Line
	4850 4050 4850 3750
Connection ~ 4450 4050
$Comp
L Device:Q_PMOS_DSG Q1
U 1 1 5E3DE98B
P 4700 2900
F 0 "Q1" V 4949 2900 50  0000 C CNN
F 1 "Q_PMOS_DSG" V 5040 2900 50  0000 C CNN
F 2 "" H 4900 3000 50  0001 C CNN
F 3 "~" H 4700 2900 50  0001 C CNN
	1    4700 2900
	0    1    1    0   
$EndComp
Wire Wire Line
	4500 3000 3800 3000
Connection ~ 3800 3000
Wire Wire Line
	4900 3000 5900 3000
Wire Wire Line
	2850 2300 4100 2300
Wire Wire Line
	4100 2300 4100 2400
Connection ~ 4100 2300
Wire Wire Line
	4100 2300 4700 2300
$Comp
L Device:R R2
U 1 1 5E3EB4EC
P 4100 2550
F 0 "R2" H 4170 2596 50  0000 L CNN
F 1 "10k" H 4170 2505 50  0000 L CNN
F 2 "" V 4030 2550 50  0001 C CNN
F 3 "~" H 4100 2550 50  0001 C CNN
	1    4100 2550
	1    0    0    -1  
$EndComp
Wire Wire Line
	4700 2300 4700 2700
Wire Wire Line
	2850 2300 2850 3000
Connection ~ 2850 3000
$Comp
L power:GND #PWR0107
U 1 1 5E3F0B8B
P 4100 2850
F 0 "#PWR0107" H 4100 2600 50  0001 C CNN
F 1 "GND" H 4105 2677 50  0000 C CNN
F 2 "" H 4100 2850 50  0001 C CNN
F 3 "" H 4100 2850 50  0001 C CNN
	1    4100 2850
	1    0    0    -1  
$EndComp
Wire Wire Line
	4100 2850 4100 2700
$Comp
L Device:D_Schottky D1
U 1 1 5E3F28DE
P 7450 2300
F 0 "D1" H 7450 2516 50  0000 C CNN
F 1 "D_Schottky" H 7450 2425 50  0000 C CNN
F 2 "" H 7450 2300 50  0001 C CNN
F 3 "~" H 7450 2300 50  0001 C CNN
	1    7450 2300
	1    0    0    -1  
$EndComp
Wire Wire Line
	8950 3550 8950 2300
Wire Wire Line
	8950 2300 7600 2300
Wire Wire Line
	7300 2300 4700 2300
Connection ~ 4700 2300
Wire Wire Line
	8950 3550 9500 3550
$Comp
L power:PWR_FLAG #FLG0101
U 1 1 5E3F76ED
P 7050 3000
F 0 "#FLG0101" H 7050 3075 50  0001 C CNN
F 1 "PWR_FLAG" H 7050 3173 50  0000 C CNN
F 2 "" H 7050 3000 50  0001 C CNN
F 3 "~" H 7050 3000 50  0001 C CNN
	1    7050 3000
	1    0    0    -1  
$EndComp
Connection ~ 7050 3000
Wire Wire Line
	7050 3000 6800 3000
$EndSCHEMATC
